a:3:{s:5:"token";s:23:"5ee0b51bf1c215.87778346";s:10:"expireDate";O:8:"DateTime":3:{s:4:"date";s:26:"2020-06-10 11:25:31.992951";s:13:"timezone_type";i:3;s:8:"timezone";s:3:"UTC";}s:7:"user_id";s:13:"5ee0b51c02486";}
a:3:{s:5:"token";s:23:"5ef2407b7e5a58.01404356";s:10:"expireDate";O:8:"DateTime":3:{s:4:"date";s:26:"2020-06-23 18:48:43.519321";s:13:"timezone_type";i:3;s:8:"timezone";s:3:"UTC";}s:7:"user_id";s:13:"5ef2407b88c3c";}
a:3:{s:5:"token";s:23:"5ef247033882f6.64614018";s:10:"expireDate";O:8:"DateTime":3:{s:4:"date";s:26:"2020-06-23 19:16:35.231554";s:13:"timezone_type";i:3;s:8:"timezone";s:3:"UTC";}s:7:"user_id";s:13:"5ef2470351977";}
a:3:{s:5:"token";s:23:"5f0874c3f36834.42781023";s:10:"expireDate";O:8:"DateTime":3:{s:4:"date";s:26:"2020-07-10 15:01:39.997010";s:13:"timezone_type";i:3;s:8:"timezone";s:3:"UTC";}s:7:"user_id";s:13:"5f0874c3f37a8";}
a:3:{s:5:"token";s:23:"5f08753d4bfce2.97138309";s:10:"expireDate";O:8:"DateTime":3:{s:4:"date";s:26:"2020-07-10 15:03:41.311259";s:13:"timezone_type";i:3;s:8:"timezone";s:3:"UTC";}s:7:"user_id";s:13:"5f08753d4c008";}
a:3:{s:5:"token";s:23:"5f0875a9cf7ac5.42390091";s:10:"expireDate";O:8:"DateTime":3:{s:4:"date";s:26:"2020-07-10 15:05:29.849847";s:13:"timezone_type";i:3;s:8:"timezone";s:3:"UTC";}s:7:"user_id";s:13:"5f0875a9cf7e6";}
a:3:{s:5:"token";s:23:"5f0875cf3d6f51.69035324";s:10:"expireDate";O:8:"DateTime":3:{s:4:"date";s:26:"2020-07-10 15:06:07.251643";s:13:"timezone_type";i:3;s:8:"timezone";s:3:"UTC";}s:7:"user_id";s:13:"5f0875cf3d733";}
a:3:{s:5:"token";s:23:"5f0875d468c3f5.83834194";s:10:"expireDate";O:8:"DateTime":3:{s:4:"date";s:26:"2020-07-10 15:06:12.429125";s:13:"timezone_type";i:3;s:8:"timezone";s:3:"UTC";}s:7:"user_id";s:13:"5f0875d468c82";}
a:3:{s:5:"token";s:23:"5f0875e53fe395.46103985";s:10:"expireDate";O:8:"DateTime":3:{s:4:"date";s:26:"2020-07-10 15:06:29.261698";s:13:"timezone_type";i:3;s:8:"timezone";s:3:"UTC";}s:7:"user_id";s:13:"5f0875e53fe7c";}
a:3:{s:5:"token";s:23:"5f0dc13f29d0c7.24992573";s:10:"expireDate";O:8:"DateTime":3:{s:4:"date";s:26:"2020-07-14 15:29:19.171297";s:13:"timezone_type";i:3;s:8:"timezone";s:3:"UTC";}s:7:"user_id";s:13:"5f0dc13f29e9d";}
a:3:{s:5:"token";s:23:"5f0ebdf8355110.42346772";s:10:"expireDate";O:8:"DateTime":3:{s:4:"date";s:26:"2020-07-15 09:27:36.218405";s:13:"timezone_type";i:3;s:8:"timezone";s:3:"UTC";}s:7:"user_id";s:13:"5f0ebdf835a74";}